…
    ## Warning: Use of bare predicate functions was deprecated in tidyselect 1.1.0.
    ## ℹ Please use wrap predicates in `where()` instead.
    ##   # Was:
    ##   data %>% select(is.numeric)
    ## 
    ##   # Now:
    ##   data %>% select(where(is.numeric))

``` r
result_df
```

    ## # A tibble: 47 × 4
    ##    city_state        OR conf.low conf.high
    ##    <chr>          <dbl>    <dbl>     <dbl>
    ##  1 Albuquerque,NM 1.73     0.814     3.70 
    ##  2 Atlanta,GA     1        0.684     1.46 
    ##  3 Baltimore,MD   0.426    0.325     0.558
    ##  4 Baton Rouge,LA 0.381    0.209     0.695
    ##  5 Birmingham,AL  0.873    0.576     1.32 
    ##  6 Boston,MA      0.672    0.355     1.27 
    ##  7 Buffalo,NY     0.522    0.291     0.939
    ##  8 Charlotte,NC   0.884    0.557     1.40 
    ##  9 Chicago,IL     0.41     0.336     0.501
    ## 10 Cincinnati,OH  0.4      0.236     0.677
    ## # … with 37 more rows
…
